<?xml version="1.0" encoding="UTF-8"?>
<svg width="24px" height="24px" viewBox="0 0 24 24" version="1.1" xmlns="http://www.w3.org/2000/svg" xmlns:xlink="http://www.w3.org/1999/xlink">
    <!-- Uploaded to SVGRepo https://www.svgrepo.com -->
    <title>ic_fluent_temperature_24_filled</title>
    <desc>Created with Sketch.</desc>
    <g id="🔍-Product-Icons" stroke="none" stroke-width="1" fill="none" fill-rule="evenodd">
        <g id="ic_fluent_temperature_24_filled" fill="#212121" fill-rule="nonzero">
            <path d="M12,2 C14.1421954,2 15.8910789,3.68396847 15.9951047,5.80019591 L16,5.99982042 L16.001,12.728 L16.0564377,12.7856019 C16.8522781,13.653856 17.3529375,14.757213 17.4722984,15.9458751 L17.4930354,16.2216278 L17.5,16.5 C17.5,19.5375661 15.0375661,22 12,22 C8.96243388,22 6.5,19.5375661 6.5,16.5 C6.5,15.1949766 6.9579178,13.9622216 7.76605104,12.9890305 L7.94454365,12.7845307 L7.999,12.727 L8,6 C8,3.92690768 9.57707765,2.22216159 11.5969395,2.02005514 L11.8003597,2.00489531 L12,2 Z M12,4 C10.9456382,4 10.0818349,4.81587779 10.0054857,5.85077122 L10,6.00003859 L9.99970695,13.5930681 L9.66669892,13.8911675 C8.92863259,14.5518634 8.5,15.4902101 8.5,16.5 C8.5,18.4329966 10.0670034,20 12,20 C13.9329966,20 15.5,18.4329966 15.5,16.5 C15.5,15.5626799 15.130686,14.6869127 14.4873654,14.0376135 L14.3340861,13.8918704 L14.0013637,13.5938476 L14,6 C14,4.8954305 13.1045695,4 12,4 Z M12,8 C12.5522847,8 13,8.44771525 13,9 L13.00083,14.2083847 C13.8833391,14.5943524 14.5,15.4751617 14.5,16.5 C14.5,17.8807119 13.3807119,19 12,19 C10.6192881,19 9.5,17.8807119 9.5,16.5 C9.5,15.4747728 10.1171291,14.5936838 11.0001748,14.2079455 L11,9 C11,8.44771525 11.4477153,8 12,8 Z" id="🎨-Color"></path>
        </g>
    </g>
</svg>